    1  sudo apt-get update
    2  curl -O https://downloads.dcos.io/dcos/stable/dcos_generate_config.sh
    3  sudo apt install curl
    4  curl -O https://downloads.dcos.io/dcos/stable/dcos_generate_config.sh
    5  sudo bash dcos_generate_config.sh --web
    6  sudo apt install docker.io
    7  sudo bash dcos_generate_config.sh --web
    8  ls -la
    9  rm -R -f dcos_generate_config.sh 
   10  sudo apt-get update
   11  sudo apt-get install build-essential libssl-dev
   12  curl -sL https://raw.githubusercontent.com/creationix/nvm/v0.33.4/install.sh -o install_nvm.sh
   13  nano install_nvm.sh 
   14  bash install_nvm.sh 
   15  nvm ls
   16  nvm install v6.0.0
   17  nvm install 6.0.0
   18  nvm ls
   19  nano install_nvm.sh 
   20  bash install_nvm.sh 
   21  nvm install 6.0.0
   22  source ~/.profile
   23  nvm
   24  nvm ls
   25  nvm install 6.0.0
   26  nvm use 6.0.0
   27  npm install -g express
   28  npm link express
   29  sudo add-apt-repository ppa:webupd8team/brackets
   30  sudo apt-get update
   31  sudo apt-get install brackets
   32  sudo add-apt-repository ppa:webupd8team/atom
   33  sudo apt update
   34  sudo apt install atom
   35  sudo apt-key adv --keyserver hkp://keyserver.ubuntu.com:80 --recv 0C49F3730359A14518585931BC711F9BA15703C6
   36  echo "deb [ arch=amd64,arm64 ] http://repo.mongodb.org/apt/ubuntu xenial/mongodb-org/3.4 multiverse" | sudo tee /etc/apt/sources.list.d/mongodb-org-3.4.list
   37  sudo apt-get update
   38  sudo apt-get install -y mongodb-org
   39  sudo service mongod start
   40  sudo vi /var/log/mongodb/mongod.log
   41  sudo service mongod stoop
   42  sudo service mongod stop
   43  sudo apt-get install postgresql-client
   44  sudo apt-get install postgresql postgresql-contrib
   45  apt-cache search postgres
   46  sudo apt-get install virtualenv python-pip libpq-dev python-dev
   47  cd
   48  virtualenv pgadmin4
   49  cd pgadmin4/
   50  source bin/activate
   51  pip install https://ftp.postgresql.org/pub/pgadmin/pgadmin4/v1.6/pip/pgadmin4-1.6-py2.py3-none-any.whl
   52  echo "SERVER_MODE = False" >> lib/python2.7/site-packages/pgadmin4/config_local.py
   53  python lib/python2.7/site-packages/pgadmin4/pgAdmin4.py
   54  sudo -u postgres psql db_name
   55  exit
   56  sudo -u postgres psql postgres
   57  python lib/python2.7/site-packages/pgadmin4/pgAdmin4.py
   58  npm
   59  exit
   60  sudo apt-get install chromium-browser
   61  wget -q -O - https://dl-ssl.google.com/linux/linux_signing_key.pub | sudo apt-key add -
   62  sudo sh -c 'echo "deb [arch=amd64] http://dl.google.com/linux/chrome/deb/ stable main" >> /etc/apt/sources.list.d/google-chrome-list' 
   63  sudo apt-get update
   64  sudo apt-get install google-chrome-stable
   65  sudo apt-get update
   66  sudo apt-get install google-chrome-stable
   67  sudo sh -c 'echo "deb [arch=amd64] http://dl.google.com/linux/chrome/deb/ stable main" >> /etc/apt/sources.list.d/google-chrome-list'
   68  sudo apt-get update
   69  sudo sh -c 'echo "deb [arch=amd64] http://dl.google.com/linux/chrome/deb/ stable main" >> /etc/apt/sources.list.d/google-chrome-list'
   70  sudo apt-get update
   71  sudo vi /etc/apt/sources.list.d/
   72  cd /etc/apt/sources.list.d/
   73  ls -la
   74  rm -R -f google-chrome-list 
   75  sudo rm -R -f google-chrome-list 
   76  sudo apt-get update
   77  docker
   78  git
   79  sudo apt-get update
   80  sudo service mongod start
   81  cd Descargas/
   82  ls -la
   83  tar -xpvf studio-3t-linux-x64.tar.gz 
   84  ls -la
   85  cd studio-3t-5.5.0-linux-x64/
   86  ls -la
   87  cd bin/
   88  ls -la
   89  ./studio-3t.sh 
   90  cd Descargas/
   91  ls -la
   92  tar -xpvf robo3t-1.1.1-linux-x86_64-c93c6b0.tar.gz 
   93  cd robo3t-1.1.1-linux-x86_64-c93c6b0/
   94  ls -la
   95  cd bin/
   96  ls -la
   97  ./robo3t 
   98  cd ..
   99  mkdir ~/robo-backup
  100  mv robo3t-1.1.1-linux-x86_64-c93c6b0/lib/libstdc++* ~/robo-backup/
  101  robo3t-1.1.1-linux-x86_64-c93c6b0/bin/robo3t 
  102  docker
  103  sudo apt-get update
  104  exit
  105  ls -la
  106  tar xzvf apache-maven-3.5.2-bin.tar.gz 
  107  echo $JAVA_HOME
  108  java
  109  sudo apt-get update
  110  sudo apt-get install default-jre
  111  sudo apt-get update
  112  exit
  113  sudo apt-get update
  114  sudo apt-get install default-jre
  115  exit
  116  sudo apt-get install default-jre
  117  sudo apt-get update
  118  sudo apt-get purge http://repo.mongodb.org/apt/ubuntu_xenial/mongodb-org/3.4
  119  sudo apt-get purge http://repo.mongodb.org/apt/ubuntu_xenial/mongodb-org/3.4 --force
  120  exit
  121  sudo apt-get
  122  sudo apt-get autoclean
  123  sudo apt-get autoremove
  124  exit
  125  sudo apt-get install default-jre
  126  sudo apt-get update
  127  sudo apt-get install default-jre
  128  sudo fuser -vki  /var/lib/dpkg/lock
  129  sudo rm -f /var/lib/dpkg/lock
  130  sudo dpkg --configure -a
  131  sudo apt-get install default-jre
  132  sudo apt-get install default-jdk
  133  echo $JAVA_HOME
  134  java
  135  java --version
  136  java -v
  137  java -version
  138  whereis java
  139  cd /usr/bin/java
  140  cd /usr/bin/
  141  ls -la
  142  java
  143  cd
  144  jdk
  145  set $JAVA_HOME /usr/lib/jvm/java-1.8.0-openjdk-amd64
  146  echo $JAVA_HOME
  147  export JAVA_HOME=/usr/lib/jvm/java-1.8.0-openjdk-amd64
  148  echo $JAVA_HOME
  149  cd
  150  mvn
  151  sudo apt install maven
  152  mvn
  153  whereis mvn
  154  export PATH=/usr/bin/mvn:$PATH
  155  echo $PATH
  156  mvn
  157  ls -la
  158  tar xzvf ideaIC-2017.3.4.tar.gz 
  159  sudo snap install intellij-idea-community --classic --edge
  160  whereis intellij
  161  whereis intellij-idea-community
  162  intellij-idea-community 
  163  sudo apt-get update
  164  exit
  165  maven
  166  mvn
  167  exit
  168  cd ideapx/
  169  start_linux.sh
  170  ls -la
  171  chmod +rwx start_linux.sh 
  172  ls -la
  173  ./start_linux.sh 
  174  cd ideapx/
  175  ./start_linux.sh 
  176  pip install awscli -- upgrade --user
  177  pip install awscli -- upgrade --alumno
  178  exit
  179  pip install awscli -- upgrade --usr22
  180  pip install awscli --upgrade --user
  181  aws version
  182  aws configure
  183  aws ls
  184  aws s3 ls
  185  Aws s3 ls | m909524
  186  aws s3 ls | m909524
  187  aws configure
  188  aws s3 ls | m909524
  189  aws s3 ls | M909524
  190  aws s3 ls | grep m909524
  191  pwd
  192  echo "hola" > ejemplo.txt
  193  aws s3 cp ejemplo.txt s3://demobucketm90952412019/ejemplo-nube.txt
  194  ls
  195  aws s3 cp ejemplo.txt s3://demobucketm90952412019/ejemplo-nube.txt
  196  exit
  197  git --version
  198  git config -l
  199  git config --global user.name "Jesus Camarena"
  200  git config --global user.email "jcamacu@yahoo.com.mx"
  201  git config -l
  202  pwd
  203  git clone https://jcamacu@bitbucket.org/jcamacu/repo1ed2019.git
  204  ls -lt
  205  cd repo1ed2019
  206  ls -lt
  207  ll
  208  git remote -v
  209  atom .
  210  git add .
  211  git status
  212  git remote -v
  213  git push origin master
  214  git status
  215  git add prueba.js
  216  git status
  217  git commit -m "Fichero JS añadido"
  218  git status
  219  git push origin master
  220  git branch dev
  221  git status
  222  git checkout dev
  223  git status
  224  git add .
  225  git status
  226  git commit -m "Se añade JS2"
  227  git push origin dev
  228  git remote -v
  229  git remote add repo2 https://jcamacu@bitbucket.org/jcamacu/repo2ed2019.git
  230  git remote -v
  231  git checkout master
  232  git status
  233  git push repo2 master
  234  history
  235  history > comandos.txt
